assignment2.knit
…
gc_new

## # A tibble: 702 x 31
##    CHK_ACCT DURATION HISTORY NEW_CAR USED_CAR FURNITURE `RADIO/TV` EDUCATION
##    <fct>       <dbl> <fct>   <fct>   <fct>    <fct>     <fct>      <fct>    
##  1 3              24 2       0       0        1         0          0        
##  2 1              36 2       0       1        0         0          0        
##  3 3              12 2       0       0        0         1          0        
##  4 1              30 4       1       0        0         0          0        
##  5 1              12 2       1       0        0         0          0        
##  6 1              12 2       0       0        0         1          0        
##  7 0              24 4       1       0        0         0          0        
##  8 0              15 2       1       0        0         0          0        
##  9 0              24 2       0       0        0         1          0        
## 10 3              24 4       0       0        0         1          0        
## # ... with 692 more rows, and 23 more variables: RETRAINING <fct>,
## #   AMOUNT <dbl>, SAV_ACCT <fct>, EMPLOYMENT <fct>, INSTALL_RATE <dbl>,
## #   MALE_DIV <fct>, MALE_SINGLE <fct>, MALE_MAR_or_WID <fct>,
## #   `CO-APPLICANT` <fct>, GUARANTOR <fct>, PRESENT_RESIDENT <fct>,
## #   REAL_ESTATE <fct>, PROP_UNKN_NONE <fct>, AGE <dbl>, OTHER_INSTALL <fct>,
## #   RENT <fct>, OWN_RES <fct>, NUM_CREDITS <dbl>, JOB <fct>,
## #   NUM_DEPENDENTS <dbl>, TELEPHONE <fct>, FOREIGN <fct>, Target <fct>
…
gc_new

## # A tibble: 702 x 31
##    CHK_ACCT DURATION HISTORY NEW_CAR USED_CAR FURNITURE `RADIO/TV` EDUCATION
##    <fct>       <dbl> <fct>   <fct>   <fct>    <fct>     <fct>      <fct>    
##  1 3              24 2       0       0        1         0          0        
##  2 1              36 2       0       1        0         0          0        
##  3 3              12 2       0       0        0         1          0        
##  4 1              30 4       1       0        0         0          0        
##  5 1              12 2       1       0        0         0          0        
##  6 1              12 2       0       0        0         1          0        
##  7 0              24 4       1       0        0         0          0        
##  8 0              15 2       1       0        0         0          0        
##  9 0              24 2       0       0        0         1          0        
## 10 3              24 4       0       0        0         1          0        
## # ... with 692 more rows, and 23 more variables: RETRAINING <fct>,
## #   AMOUNT <dbl>, SAV_ACCT <fct>, EMPLOYMENT <fct>, INSTALL_RATE <dbl>,
## #   MALE_DIV <fct>, MALE_SINGLE <fct>, MALE_MAR_or_WID <fct>,
## #   `CO-APPLICANT` <fct>, GUARANTOR <fct>, PRESENT_RESIDENT <fct>,
## #   REAL_ESTATE <fct>, PROP_UNKN_NONE <fct>, AGE <dbl>, OTHER_INSTALL <fct>,
## #   RENT <fct>, OWN_RES <fct>, NUM_CREDITS <dbl>, JOB <fct>,
## #   NUM_DEPENDENTS <dbl>, TELEPHONE <fct>, FOREIGN <fct>, Target <fct>
…
