assignment3.knit
…
## [1] 1.546908

EDA

#Removing unwanted columns
travel_data$ID <- NULL
travel_data$Early.RPL <- NULL
travel_data$Latest.RPL <- NULL
travel_data$Initial.System.Date <- NULL
travel_data$FirstMeeting <- NULL
travel_data$LastMeeting <- NULL
travel_data

## # A tibble: 2,392 x 50
##    Program.Code From.Grade To.Grade Group.State Is.Non.Annual.  Days Travel.Type
##    <chr>        <chr>      <chr>    <chr>                <dbl> <dbl> <chr>      
##  1 HS           4.0        4.0      CA                       0     1 A          
##  2 HC           8.0        8.0      AZ                       0     7 A          
##  3 HD           8.0        8.0      FL                       0     3 A          
##  4 HN           9.0        12.0     VA                       1     3 B          
##  5 HD           6.0        8.0      FL                       0     6 T          
##  6 HC           10.0       12.0     LA                       0     4 A          
##  7 SG           11.0       12.0     MA                       1     6 A          
##  8 FN           9.0        9.0      MX                       0     8 A          
##  9 CC           8.0        8.0      AZ                       0     8 A          
## 10 HD           8.0        8.0      TX                       0     4 A          
## # ... with 2,382 more rows, and 43 more variables: Departure.Date <dttm>,
## #   Return.Date <dttm>, Deposit.Date <dttm>, Special.Pay <chr>, Tuition <dbl>,
## #   FRP.Active <dbl>, FRP.Cancelled <dbl>, FRP.Take.up.percent. <dbl>,
## #   Cancelled.Pax <dbl>, Total.Discount.Pax <dbl>, Poverty.Code <chr>,
## #   Region <chr>, CRM.Segment <chr>, School.Type <chr>,
## #   Parent.Meeting.Flag <dbl>, MDR.Low.Grade <chr>, MDR.High.Grade <chr>,
## #   Total.School.Enrollment <dbl>, Income.Level <chr>, ...
…
